// Jest Snapshot v1, https://goo.gl/fbAQLP

exports[`IDVerificationModal should match snapshot 1`] = `
<div>
  <div
    className="modal__header"
  >
    <div
      className="modal__header-title"
    >
      <svg
        attr={
          Object {
            "viewBox": "0 0 24 24",
          }
        }
        className={undefined}
        fill="currentColor"
        height="1em"
        stroke="currentColor"
        strokeWidth="0"
        style={
          Object {
            "color": undefined,
          }
        }
        viewBox="0 0 24 24"
        width="1em"
      >
        <path
          d="M18 8h-1V6c0-2.76-2.24-5-5-5S7 3.24 7 6v2H6c-1.1 0-2 .9-2 2v10c0 1.1.9 2 2 2h12c1.1 0 2-.9 2-2V10c0-1.1-.9-2-2-2zm-6 9c-1.1 0-2-.9-2-2s.9-2 2-2 2 .9 2 2-.9 2-2 2zm3.1-9H8.9V6c0-1.71 1.39-3.1 3.1-3.1 1.71 0 3.1 1.39 3.1 3.1v2z"
        />
      </svg>
      Identity verification required
    </div>
    <div
      className="modal__header-subtitle"
    >
      For your security, we ocassionally require you to verify identity by entering a code sent to your mobile device.
    </div>
  </div>
  <div
    className="modal__content"
  >
    <div
      className="code-form"
    >
      <div
        className="code-form__header"
      >
        <span>
          Enter the code sent via SMS to  
        </span>
        <div>
          <span
            className="phone-number__area"
          >
            123
          </span>
          <span
            className="phone-number__line-number"
          >
            4567
          </span>
        </div>
      </div>
      <div
        className="code-form__digits-container"
      >
        <input
          className="digit-input"
          maxLength="1"
          onChange={[Function]}
        />
        <input
          className="digit-input"
          maxLength="1"
          onChange={[Function]}
        />
        <input
          className="digit-input"
          maxLength="1"
          onChange={[Function]}
        />
        <input
          className="digit-input"
          maxLength="1"
          onChange={[Function]}
        />
        <input
          className="digit-input"
          maxLength="1"
          onChange={[Function]}
        />
        <input
          className="digit-input"
          maxLength="1"
          onChange={[Function]}
        />
      </div>
      <div
        className="code-form__actions"
      >
        <a
          className="modal__link"
        >
          <svg
            attr={
              Object {
                "viewBox": "0 0 24 24",
              }
            }
            className={undefined}
            fill="currentColor"
            height="1em"
            stroke="currentColor"
            strokeWidth="0"
            style={
              Object {
                "color": undefined,
              }
            }
            viewBox="0 0 24 24"
            width="1em"
          >
            <path
              d="M17.65 6.35C16.2 4.9 14.21 4 12 4c-4.42 0-7.99 3.58-7.99 8s3.57 8 7.99 8c3.73 0 6.84-2.55 7.73-6h-2.08c-.82 2.33-3.04 4-5.65 4-3.31 0-6-2.69-6-6s2.69-6 6-6c1.66 0 3.14.69 4.22 1.78L13 11h7V4l-2.35 2.35z"
            />
          </svg>
          Receive a new code
        </a>
        <a
          className="modal__link"
        >
          <svg
            attr={
              Object {
                "viewBox": "0 0 24 24",
              }
            }
            className={undefined}
            fill="currentColor"
            height="1em"
            stroke="currentColor"
            strokeWidth="0"
            style={
              Object {
                "color": undefined,
              }
            }
            viewBox="0 0 24 24"
            width="1em"
          >
            <path
              d="M6.62 10.79c1.44 2.83 3.76 5.14 6.59 6.59l2.2-2.2c.27-.27.67-.36 1.02-.24 1.12.37 2.33.57 3.57.57.55 0 1 .45 1 1V20c0 .55-.45 1-1 1-9.39 0-17-7.61-17-17 0-.55.45-1 1-1h3.5c.55 0 1 .45 1 1 0 1.25.2 2.45.57 3.57.11.35.03.74-.25 1.02l-2.2 2.2z"
            />
          </svg>
          Receive code via call instead
        </a>
      </div>
    </div>
  </div>
  <div
    className="modal__footer"
  >
    <span>
      <button
        className="btn btn--primary btn--modal"
        disabled={true}
        onClick={[Function]}
      >
        Verify Identity
      </button>
      <button
        className="btn btn--modal"
        disabled={undefined}
        onClick={[Function]}
      >
        Back
      </button>
    </span>
    <span
      className="footer__link"
    >
      I can't access this mobile device
    </span>
  </div>
</div>
`;
